<svg width="71" height="72" viewBox="0 0 71 72" fill="none" xmlns="http://www.w3.org/2000/svg">
  <path d="M35.5 0L38.1302 2.99225L41.1992 0.466948L43.3224 3.84865L46.7508 1.8557L48.312 5.53926L52.0111 4.13028L52.9698 8.02031L56.8437 7.23178L57.1752 11.2275L61.1235 11.0799L60.8191 15.0779L64.7396 15.5749L63.8074 19.4716L67.5985 20.6005L66.0624 24.2949L69.6261 26.0264L67.5259 29.4229L70.7698 31.7121L68.16 34.7227L71 37.5104L67.9482 40.0571L70.3108 43.2711L66.896 45.288L68.72 48.845L65.0306 50.2798L66.2689 54.0877L62.4005 54.9033L63.0208 58.8635L59.0736 59.0387L59.06 63.0486L55.1362 62.579L54.4889 66.5347L50.6902 65.4324L49.4261 69.2315L45.8508 67.525L44.0026 71.0691L40.7433 68.8027L38.3589 72L35.5 69.2322L32.6411 72L30.2567 68.8027L26.9974 71.0691L25.1492 67.525L21.5739 69.2315L20.3098 65.4324L16.5111 66.5347L15.8638 62.579L11.94 63.0486L11.9264 59.0387L7.97921 58.8635L8.59953 54.9033L4.73115 54.0877L5.96936 50.2798L2.27998 48.845L4.10402 45.288L0.689201 43.2711L3.05182 40.0571L0 37.5104L2.84 34.7227L0.230233 31.7121L3.47407 29.4229L1.37393 26.0264L4.93759 24.2949L3.40148 20.6005L7.19266 19.4716L6.26036 15.5749L10.1809 15.0779L9.87653 11.0799L13.8248 11.2275L14.1563 7.23178L18.0302 8.02031L18.9889 4.13028L22.688 5.53926L24.2492 1.8557L27.6776 3.84865L29.8008 0.466948L32.8698 2.99225L35.5 0Z" fill="#DCDCDC"/>
</svg>
