<svg width="16" height="12" viewBox="0 0 16 12" fill="none" xmlns="http://www.w3.org/2000/svg">
  <path d="M5.02601 12C11.0636 12 14.3673 7.38189 14.3673 3.38386C14.3673 3.25394 14.3673 3.12402 14.3609 2.99409C15.0012 2.5689 15.5582 2.0315 16 1.42323C15.411 1.66535 14.7771 1.8248 14.1112 1.90157C14.7899 1.52953 15.3085 0.933071 15.5582 0.224409C14.9244 0.572835 14.2201 0.820866 13.471 0.956693C12.8691 0.366142 12.0176 0 11.0764 0C9.26451 0 7.79192 1.35827 7.79192 3.02953C7.79192 3.26575 7.82393 3.49606 7.87515 3.72047C5.14766 3.59646 2.72749 2.38583 1.10764 0.555118C0.82593 1.00394 0.665866 1.52362 0.665866 2.07874C0.665866 3.12992 1.2485 4.05709 2.12565 4.60039C1.58783 4.58268 1.08203 4.44685 0.640256 4.22244C0.640256 4.23425 0.640256 4.24606 0.640256 4.26378C0.640256 5.72835 1.77351 6.95669 3.27171 7.23425C2.9964 7.30512 2.70828 7.34055 2.40736 7.34055C2.19608 7.34055 1.9912 7.32283 1.79272 7.2874C2.20888 8.49213 3.42537 9.36614 4.85954 9.38976C3.73269 10.2047 2.31773 10.689 0.781112 10.689C0.518607 10.689 0.256102 10.6772 0 10.6476C1.44698 11.498 3.17567 12 5.02601 12Z" fill="#6D26F5"/>
</svg>
